      1.10000       0.907343E+02
      1.13243       0.709284E+02
      1.16486       0.549374E+02
      1.19730       0.421454E+02
      1.22973       0.320427E+02
      1.26216       0.242015E+02
      1.29459       0.182588E+02
      1.32703       0.139040E+02
      1.35946       0.108705E+02
      1.39189       0.892896E+01
      1.42432       0.788263E+01
      1.45676       0.756313E+01
      1.48919       0.782704E+01
      1.52162       0.855293E+01
      1.55405       0.963865E+01
      1.58649       0.109988E+02
      1.61892       0.125627E+02
      1.65135       0.142719E+02
      1.68378       0.160789E+02
      1.71622       0.179450E+02
      1.74865       0.198390E+02
      1.78108       0.217362E+02
      1.81351       0.236170E+02
      1.84595       0.254662E+02
      1.87838       0.272726E+02
      1.91081       0.290284E+02
      1.94324       0.307296E+02
      1.97568       0.323761E+02
      2.00811       0.339718E+02
      2.04054       0.355236E+02
      2.07297       0.370359E+02
      2.10541       0.385022E+02
      2.13784       0.399006E+02
      2.17027       0.412037E+02
      2.20270       0.423955E+02
      2.23514       0.434767E+02
      2.26757       0.444574E+02
      2.30000       0.453498E+02
      2.33243       0.461640E+02
      2.36486       0.469080E+02
      2.39730       0.475881E+02
      2.42973       0.482093E+02
      2.46216       0.487760E+02
      2.49459       0.492925E+02
      2.52703       0.497624E+02
      2.55946       0.501895E+02
      2.59189       0.505772E+02
      2.62432       0.509289E+02
      2.65676       0.512477E+02
      2.68919       0.515366E+02
      2.72162       0.517984E+02
      2.75405       0.520357E+02
      2.78649       0.509308E+02
      2.81892       0.507529E+02
      2.85135       0.505876E+02
      2.88378       0.504383E+02
      2.91622       0.503074E+02
      2.94865       0.501964E+02
      2.98108       0.501049E+02
      3.01351       0.500315E+02
      3.04595       0.499741E+02
      3.07838       0.499311E+02
      3.11081       0.499008E+02
      3.14324       0.498818E+02
      3.17568       0.498731E+02
      3.20811       0.498737E+02
      3.24054       0.498826E+02
      3.27297       0.498993E+02
      3.30541       0.499229E+02
      3.33784       0.499531E+02
      3.37027       0.499891E+02
      3.40270       0.500306E+02
      3.43514       0.500771E+02
      3.46757       0.501281E+02
      3.50000       0.501832E+02
